[gd_scene load_steps=3 format=2]

[ext_resource path="res://Scripts/EnemyKB.gd" type="Script" id=1]
[ext_resource path="res://icon.png" type="Texture" id=2]

[node name="Enemy" type="KinematicBody2D"]

z_index = 2
input_pickable = false
collision_layer = 4
collision_mask = 26
collision/safe_margin = 0.08
script = ExtResource( 1 )
_sections_unfolded = [ "Collision", "Transform", "Z Index", "collision" ]
_MAX_KBACK_TM = 0.1
_MAX_BOUNCE_TM = 0.5
_MAX_BOUNCE_CNT = 7
_GRAVITY = 20.0
_max_health = 3
_attack_pow = 1
_point_val = 100
_multiplier = 1

[node name="TemplateSprite" type="Sprite" parent="." index="0"]

texture = ExtResource( 2 )
_sections_unfolded = [ "Z Index" ]

[node name="CollisionPolygon2D" type="CollisionPolygon2D" parent="." index="1"]

build_mode = 0
polygon = PoolVector2Array( -30, -30, 30, -30, 30, 30, -30, 30, -30, -30 )


