[gd_resource type="TileSet" load_steps=4 format=2]

[ext_resource path="res://Sprites/colorTiles.png" type="Texture" id=1]

[sub_resource type="RectangleShape2D" id=1]

custom_solver_bias = 0.0
extents = Vector2( 12, 12 )

[sub_resource type="RectangleShape2D" id=3]

custom_solver_bias = 0.0
extents = Vector2( 12, 12 )

[resource]

0/name = "RedTile"
0/texture = ExtResource( 1 )
0/tex_offset = Vector2( 0, 0 )
0/modulate = Color( 1, 1, 1, 1 )
0/region = Rect2( 0, 0, 24, 24 )
0/is_autotile = false
0/occluder_offset = Vector2( 12, 12 )
0/navigation_offset = Vector2( 12, 12 )
0/shapes = [ {
"autotile_coord": Vector2( 0, 0 ),
"one_way": false,
"shape": SubResource( 1 ),
"shape_transform": Transform2D( 1, 0, 0, 1, 12, 12 )
} ]
1/name = "GreenTile"
1/texture = ExtResource( 1 )
1/tex_offset = Vector2( 0, 0 )
1/modulate = Color( 1, 1, 1, 1 )
1/region = Rect2( 27, 0, 24, 24 )
1/is_autotile = false
1/occluder_offset = Vector2( 12, 12 )
1/navigation_offset = Vector2( 12, 12 )
1/shapes = [ {
"autotile_coord": Vector2( 0, 0 ),
"one_way": false,
"shape": SubResource( 3 ),
"shape_transform": Transform2D( 1, 0, 0, 1, 12, 12 )
} ]

